Analysis of Phanerozoic fossil occurrences as a function of geological context
…
Macrostrat geological units

The first set is pulling the relevant raw data from Macrostrat. I want geological units from the entire Phanerozoic (the last 541 million years). In Macrostrat, a geological unit is defined as a gap-bounded litho-stratigraphic interval  an association of rocks in sequence that is distinct from those rocks above and below.

Macrostrat has a minimal, barely documented API, so Ill just write out a call for all geological units. I believe the underlying structure is a GeoJSON database, but there are a lot of different output options. Im using a CSV output because Im interested in lithologic (rock type) and stratigraphic (rock position in time/space) information, but Im not interested in the spatial/map objects available for each geological unit.

unit_url <- glue('https://macrostrat.org/api/v2/units?',
                      'interval_name=Phanerozoic&response=long&format=csv')
unit_data <- read_csv(unit_url)

print(unit_data)

## # A tibble: 33,294 x 43
##    unit_id section_id col_id project_id col_area unit_name strat_name_id
##      <dbl>      <dbl>  <dbl>      <dbl>    <dbl> <chr>             <dbl>
##  1     758        106     22          1   26763. Unnamed              NA
##  2     815        113     24          1   18077. Unnamed              NA
##  3     948        128     26          1   13347. Unnamed              NA
##  4    1080        143     31          1   27550. Unnamed              NA
##  5    1084        144     33          1    8338. Unnamed              NA
##  6    1086        145     35          1   58232. Unnamed              NA
##  7    1282        170     36          1   24822. Surficia            NA
##  8    1759        225     48          1   44137. Unnamed              NA
##  9    1771        226     49          1   25365. Unnamed              NA
## 10    1806        244     50          1   12949. Unnamed              NA
## #  with 33,284 more rows, and 36 more variables: Mbr <lgl>, Fm <chr>,
## #   Gp <chr>, SGp <lgl>, t_age <dbl>, b_age <dbl>, max_thick <dbl>,
## #   min_thick <dbl>, outcrop <chr>, pbdb_collections <dbl>,
## #   pbdb_occurrences <dbl>, lith <chr>, environ <chr>, econ <chr>,
## #   measure <chr>, notes <chr>, color <chr>, text_color <chr>,
## #   t_int_id <dbl>, t_int_name <chr>, t_int_age <dbl>, t_prop <dbl>,
## #   units_above <chr>, b_int_id <dbl>, b_int_name <chr>, b_int_age <dbl>,
## #   b_prop <dbl>, units_below <dbl>, strat_name_long <chr>, refs <dbl>,
## #   clat <dbl>, clng <dbl>, t_plat <dbl>, t_plng <dbl>, b_plat <dbl>,
…
